{
    "KPlugin": {
        "Authors": [
            {
                "Email": "pmdematagoda@mykolab.ch",
                "Name": "Pramod Dematagoda",
                "Name[ar]": "Pramod Dematagoda",
                "Name[ast]": "Pramod Dematagoda",
                "Name[az]": "Pramod Dematagoda",
                "Name[ca@valencia]": "Pramod Dematagoda",
                "Name[ca]": "Pramod Dematagoda",
                "Name[cs]": "Pramod Dematagoda",
                "Name[da]": "Pramod Dematagoda",
                "Name[de]": "Pramod Dematagoda",
                "Name[el]": "Pramod Dematagoda",
                "Name[en_GB]": "Pramod Dematagoda",
                "Name[es]": "Pramod Dematagoda",
                "Name[et]": "Pramod Dematagoda",
                "Name[eu]": "Pramod Dematagoda",
                "Name[fi]": "Pramod Dematagoda",
                "Name[fr]": "Pramod Dematagoda",
                "Name[gl]": "Pramod Dematagoda",
                "Name[hu]": "Pramod Dematagoda",
                "Name[ia]": "Pramod Dematagoda",
                "Name[id]": "Pramod Dematagoda",
                "Name[it]": "Pramod Dematagoda",
                "Name[ko]": "Pramod Dematagoda",
                "Name[lt]": "Pramod Dematagoda",
                "Name[nl]": "Pramod Dematagoda",
                "Name[nn]": "Pramod Dematagoda",
                "Name[pl]": "Pramod Dematagoda",
                "Name[pt]": "Pramod Dematagoda",
                "Name[pt_BR]": "Pramod Dematagoda",
                "Name[ro]": "Pramod Dematagoda",
                "Name[ru]": "Pramod Dematagoda",
                "Name[sk]": "Pramod Dematagoda",
                "Name[sl]": "Pramod Dematagoda",
                "Name[sr@ijekavian]": "Прамод Дематагода",
                "Name[sr@ijekavianlatin]": "Pramod Dematagoda",
                "Name[sr@latin]": "Pramod Dematagoda",
                "Name[sr]": "Прамод Дематагода",
                "Name[sv]": "Pramod Dematagoda",
                "Name[tr]": "Pramod Dematagoda",
                "Name[uk]": "Pramod Dematagoda",
                "Name[x-test]": "xxPramod Dematagodaxx",
                "Name[zh_CN]": "Pramod Dematagoda",
                "Name[zh_TW]": "Pramod Dematagoda"
            }
        ],
        "Description": "Inhibit the screensaver when the device is connected",
        "Description[ar]": "امنع حافظة الشّاشة إن كان الجهاز متّصلًا",
        "Description[az]": "Cihaz qoşularkən Ekran Qoruyucusunu qadağan etmək",
        "Description[ca@valencia]": "Inhibix el salvapantalla quan el dispositiu està connectat",
        "Description[ca]": "Inhibeix l'estalvi de pantalla quan el dispositiu està connectat",
        "Description[cs]": "Potlačit spořič pokud je zařízení připojeno",
        "Description[da]": "Tilbagehold pauseskærmen når enheden er tilsluttet",
        "Description[de]": "Bildschirmschoner unterbinden, wenn ein Gerät angeschlossen ist",
        "Description[el]": "Απαγόρευση προστασίας οθόνης όταν η συσκευή είναι σε σύνδεση",
        "Description[en_GB]": "Inhibit the screensaver when the device is connected",
        "Description[es]": "Inhibir el salvapantallas cuando el dispositivo está conectado",
        "Description[et]": "Ekraanisäästja keelamine, kui seade on ühendatud",
        "Description[eu]": "Gelditu pantaila-babeslea gailua konektatuta dagoenean",
        "Description[fi]": "Estä näytönsäästäjän käynnistyminen, kun laite on yhteydessä",
        "Description[fr]": "Inhiber l'économiseur d'écran quand le périphérique est connecté",
        "Description[gl]": "Desactivar o salvapantallas mentres o dispositivo estea conectado",
        "Description[hu]": "A képernyővédő kikapcsolása, ha az eszköz csatlakoztatva van",
        "Description[ia]": "Inhibi le salvator de schermo quando le dispositivo es connectite",
        "Description[id]": "Hambat screensaver ketika perangkat telah terkoneksi",
        "Description[it]": "Impedisce il salvaschermo quando il dispositivo è connesso",
        "Description[ja]": "デバイスが接続中はスクリーンセーバーを抑止",
        "Description[ko]": "장치가 연결되었을 때 화면 보호기 실행 중지",
        "Description[lt]": "Užslopinti ekrano užsklandą, kol įrenginys prijungtas",
        "Description[nl]": "Houdt de schermbeveiliging tegen wanneer het apparaat is verbonden",
        "Description[nn]": "Hindra pauseskjermen i å starta når eininga er kopla til",
        "Description[pl]": "Powstrzymuje wygaszacz ekranu po podłączeniu innego urządzenia",
        "Description[pt]": "Inibir o protector de ecrã quando o dispositivo estiver ligado",
        "Description[pt_BR]": "Inibe o protetor de tela quando o dispositivo estiver conectado",
        "Description[ro]": "Inhibă protecția de ecran când dispozitivul e conectat",
        "Description[ru]": "Запретить запуск хранителя экрана при подключённом устройстве",
        "Description[sk]": "Zabránenie šetriča obrazovky, keď je pripojené zariadenie",
        "Description[sl]": "Preprečuj delovanje ohranjevalnika zaslona, ko je naprava povezana",
        "Description[sr@ijekavian]": "Онемогућава чувара екрана када је уређај повезан",
        "Description[sr@ijekavianlatin]": "Onemogućava čuvara ekrana kada je uređaj povezan",
        "Description[sr@latin]": "Onemogućava čuvara ekrana kada je uređaj povezan",
        "Description[sr]": "Онемогућава чувара екрана када је уређај повезан",
        "Description[sv]": "Stoppa skärmsläckaren när apparaten ansluts",
        "Description[tr]": "Aygıt bağlandığında ekran koruyucuyu durdur",
        "Description[uk]": "Забороняє зберігач екрана, якщо з’єднано пристрій",
        "Description[x-test]": "xxInhibit the screensaver when the device is connectedxx",
        "Description[zh_CN]": "连接设备时禁止屏保",
        "Description[zh_TW]": "當裝置連接中時停止螢幕保護",
        "EnabledByDefault": false,
        "Icon": "preferences-desktop-screensaver",
        "Id": "kdeconnect_screensaver_inhibit",
        "License": "GPL",
        "Name": "Inhibit screensaver",
        "Name[ar]": "امنع حافظة الشّاشة",
        "Name[az]": "Ekran qoruyucusunu qadağan etmək",
        "Name[ca@valencia]": "Inhibix el salvapantalla",
        "Name[ca]": "Inhibeix l'estalvi de pantalla",
        "Name[cs]": "Potlačit spořič obrazovky",
        "Name[da]": "Tilbagehold pauseskærm",
        "Name[de]": "Bildschirmschoner unterbinden",
        "Name[el]": "Απαγόρευση προστασίας οθόνης",
        "Name[en_GB]": "Inhibit screensaver",
        "Name[es]": "Inhibir salvapantallas",
        "Name[et]": "Ekraanisäästja keelamine",
        "Name[eu]": "Gelditu pantaila-babeslea",
        "Name[fi]": "Estä näytönsäästäjän käynnistyminen",
        "Name[fr]": "Inhiber l'économiseur d'écran",
        "Name[gl]": "Desactivar o salvapantallas",
        "Name[hu]": "Képernyővédő letiltása",
        "Name[ia]": "Inhibi salvator de schermo",
        "Name[id]": "Inhibit screensaver",
        "Name[it]": "Impedisci il salvaschermo",
        "Name[ja]": "スクリーンセーバーを抑制",
        "Name[ko]": "화면 보호기 중지",
        "Name[lt]": "Užslopinti ekrano užsklandą",
        "Name[nl]": "Schermbeveiliging tegenhouden",
        "Name[nn]": "Hindra pauseskjerm",
        "Name[pl]": "Powstrzymywanie wygaszacza ekranu",
        "Name[pt]": "Inibir o protector de ecrã",
        "Name[pt_BR]": "Inibir o protetor de tela",
        "Name[ro]": "Inhibă protecția de ecran",
        "Name[ru]": "Запретить запуск хранителя экрана",
        "Name[sk]": "Zabrániť šetrič obrazovky",
        "Name[sl]": "Preprečuj delovanje ohranjevalnika zaslona",
        "Name[sr@ijekavian]": "Онемогући чувара екрана",
        "Name[sr@ijekavianlatin]": "Onemogući čuvara ekrana",
        "Name[sr@latin]": "Onemogući čuvara ekrana",
        "Name[sr]": "Онемогући чувара екрана",
        "Name[sv]": "Stoppa skärmsläckare",
        "Name[tr]": "Ekran koruyucuyu durdur",
        "Name[uk]": "Заборона зберігача екрана",
        "Name[x-test]": "xxInhibit screensaverxx",
        "Name[zh_CN]": "禁止屏保",
        "Name[zh_TW]": "停止螢幕保護",
        "ServiceTypes": [
            "KdeConnect/Plugin"
        ],
        "Version": "0.1",
        "Website": "https://albertvaka.wordpress.com"
    }
}
